%YAML 1.1
%TAG !u! tag:unity3d.com,2011:
--- !u!114 &11400000
MonoBehaviour:
  m_ObjectHideFlags: 0
  m_CorrespondingSourceObject: {fileID: 0}
  m_PrefabInstance: {fileID: 0}
  m_PrefabAsset: {fileID: 0}
  m_GameObject: {fileID: 0}
  m_Enabled: 1
  m_EditorHideFlags: 0
  m_Script: {fileID: 11500000, guid: c2e1e132af114cd4c9326218157a81af, type: 3}
  m_Name: Level0
  m_EditorClassIdentifier: 
  difficulty: 0
  lvlPanelsList:
  - {fileID: 11400000, guid: fbffe723973bb8444aef8d6ca72fc368, type: 2}
  - {fileID: 11400000, guid: a2ea63e269db489468ef3abc3f7bb9b2, type: 2}
  - {fileID: 11400000, guid: dd73e411748ee8441819de84b04458db, type: 2}
