%YAML 1.1
%TAG !u! tag:unity3d.com,2011:
--- !u!114 &11400000
MonoBehaviour:
  m_ObjectHideFlags: 0
  m_CorrespondingSourceObject: {fileID: 0}
  m_PrefabInstance: {fileID: 0}
  m_PrefabAsset: {fileID: 0}
  m_GameObject: {fileID: 0}
  m_Enabled: 1
  m_EditorHideFlags: 0
  m_Script: {fileID: 11500000, guid: c2e1e132af114cd4c9326218157a81af, type: 3}
  m_Name: Level2
  m_EditorClassIdentifier: 
  difficulty: 1
  lvlPanelsList:
  - {fileID: 11400000, guid: 53135fff9b1552648a2e160dc9d242f8, type: 2}
  - {fileID: 11400000, guid: f13867ef95f7b05488922cc3182c7f91, type: 2}
  - {fileID: 11400000, guid: d0677352b886214489e4bd25655f19ba, type: 2}
  - {fileID: 11400000, guid: 3c141cf12b245b64c919d85374819bd0, type: 2}
