%YAML 1.1
%TAG !u! tag:unity3d.com,2011:
--- !u!114 &11400000
MonoBehaviour:
  m_ObjectHideFlags: 0
  m_CorrespondingSourceObject: {fileID: 0}
  m_PrefabInstance: {fileID: 0}
  m_PrefabAsset: {fileID: 0}
  m_GameObject: {fileID: 0}
  m_Enabled: 1
  m_EditorHideFlags: 0
  m_Script: {fileID: 11500000, guid: c2e1e132af114cd4c9326218157a81af, type: 3}
  m_Name: Level1
  m_EditorClassIdentifier: 
  difficulty: 2
  lvlPanelsList:
  - {fileID: 11400000, guid: 73d74769c23de9a4a8677a4b153dd323, type: 2}
  - {fileID: 11400000, guid: 42f4d96161ac1024a9c7d5897541630e, type: 2}
  - {fileID: 11400000, guid: 198cd3e56ce72c9449e712c2305bb173, type: 2}
  - {fileID: 11400000, guid: e05eda24a6942e748a5173f280908cc1, type: 2}
  - {fileID: 11400000, guid: c7165c94e50100c4fa3219e853bd39b7, type: 2}
