%YAML 1.1
%TAG !u! tag:unity3d.com,2011:
--- !u!114 &11400000
MonoBehaviour:
  m_ObjectHideFlags: 0
  m_CorrespondingSourceObject: {fileID: 0}
  m_PrefabInstance: {fileID: 0}
  m_PrefabAsset: {fileID: 0}
  m_GameObject: {fileID: 0}
  m_Enabled: 1
  m_EditorHideFlags: 0
  m_Script: {fileID: 11500000, guid: c2e1e132af114cd4c9326218157a81af, type: 3}
  m_Name: Level3
  m_EditorClassIdentifier: 
  difficulty: 2
  lvlPanelsList:
  - {fileID: 11400000, guid: 28169bdadf81af945bf02c6b19431a6b, type: 2}
  - {fileID: 11400000, guid: 878a73d94a978f745815c6d785687502, type: 2}
  - {fileID: 11400000, guid: 792c824f1af29a948accebdef7b549d0, type: 2}
  - {fileID: 11400000, guid: 8ab558af93e985948a602a00ac593ba9, type: 2}
